{
  "content": [
    {
      "id": 1,
      "time": "2023-05-01T01:01:01",
      "title": "Компания ispace объяснила причину крушения модуля Hakuto-R",
      "text": " Эксперты компании пришли к выводу, что причиной крушения стала ошибка бортового компьютера, который неправильно определил высоту аппарата из-за сложного рельефа.",
      "author": "journalist"
    },
    {
      "id": 2,
      "time": "2023-05-02T02:02:02",
      "title": "Gigabyte представила внешнюю видеокарту Aorus GeForce RTX 4090 Gaming Box в большом корпусе с мощным БП",
      "text": "Устройство представляет из себя пятикилограммовый корпус размером 302х172х189 мм (ГхШхВ) с системой жидкостного охлаждения и встроенным БП на 850 Вт, имеющим сертификацию 80 Plus Gold.",
      "author": "journalist"
    }
  ],
  "pageable": {
    "sort": [],
    "offset": 0,
    "pageNumber": 0,
    "pageSize": 2,
    "paged": true,
    "unpaged": false
  },
  "last": false,
  "totalPages": 11,
  "totalElements": 21,
  "size": 2,
  "number": 0,
  "sort": [],
  "first": true,
  "numberOfElements": 2,
  "empty": false
}
